Fan Experiment Analysis - extra
…
actr <- read_csv("../csv_files/actr_activations_perword.csv")

## Rows: 2400 Columns: 4
## ── Column specification ──────────────────────────────────────────────────
## Delimiter: ","
## chr (1): Word
## dbl (2): ACT_R_activation, List
## lgl (1): Location_fan
## 
## ℹ Use `spec()` to retrieve the full column specification for this data.
## ℹ Specify the column types or set `show_col_types = FALSE` to quiet this message.

print(dotproduct)

## # A tibble: 7,152 × 6
##    Word       Dot_product Location_fan Model_seed n_epochs  List
##    <chr>            <dbl> <lgl>             <dbl>    <dbl> <dbl>
##  1 plantenkas       1.37  TRUE                 23       65     1
##  2 terras           1.01  TRUE                 23       65     1
##  3 tram             1.93  TRUE                 23       65     1
##  4 metro            0.474 TRUE                 23       65     1
##  5 afgrond          1.07  TRUE                 23       65     1
##  6 bus              0.957 TRUE                 23       65     1
##  7 trein            0.779 TRUE                 23       65     1
##  8 tempel           1.47  TRUE                 23       65     1
##  9 filmhuis         2.36  TRUE                 23       65     1
## 10 synagoge         0.947 TRUE                 23       65     1
## # ℹ 7,142 more rows

print(actr)

## # A tibble: 2,400 × 4
##    Word       ACT_R_activation Location_fan  List
##    <chr>                 <dbl> <lgl>        <dbl>
##  1 plantenkas             128. TRUE             1
##  2 terras                 121. TRUE             1
##  3 tram                   123. TRUE             1
##  4 metro                  128. TRUE             1
##  5 afgrond                129. TRUE             1
##  6 bus                    121. TRUE             1
##  7 trein                  120. TRUE             1
##  8 tempel                 127. TRUE             1
##  9 filmhuis               133. TRUE             1
## 10 synagoge               126. TRUE             1
## # ℹ 2,390 more rows
…
testing_all$fan <- ifelse(testing_all$fan_loc == 4 | testing_all$fan_pers == 4, 1, -1)
testing_all$type_fan <- NA
testing_all$type_fan <- ifelse(testing_all$fan == 0, 0, ifelse(testing_all$fan_pers == 4, 1, -1))
testing_all <- testing_all %>% group_by(test_sentence) %>% mutate(pers_word=as.character(strsplit(test_sentence, " ")[[1]][2]), loc_word=as.character(strsplit(test_sentence, " ")[[1]][6]))
testing_all$pp_num <- as.numeric(testing_all$pp_num)
testing_all$manipulated_fan <- ifelse(testing_all$pp_num %% 2 == 1, "location", "person" )
testing_all$pp_num <- as.character(testing_all$pp_num)
testing_all$fan_word <- ifelse(testing_all$manipulated_fan == "person", testing_all$pers_word, testing_all$loc_word)
testing_all$fan_foil <- ifelse(testing_all$condition == "target", 0, ifelse(testing_all$fan == 1, 1, -1))
testing_all$fan_target <- ifelse(testing_all$condition == "foil", 0, ifelse(testing_all$fan == 1, 1, -1))
testing_all$type_condition <- ifelse(testing_all$condition == "target", 1, -1)

print(testing_all, width=Inf)

## # A tibble: 14,400 × 22
## # Groups:   test_sentence [2,608]
##     ...1 pp_num   yob education testing_rep
##    <dbl> <chr>  <dbl> <chr>           <dbl>
##  1     0 1       1995 HBO                 1
##  2     1 1       1995 HBO                 1
##  3     2 1       1995 HBO                 1
##  4     3 1       1995 HBO                 1
##  5     4 1       1995 HBO                 1
##  6     5 1       1995 HBO                 1
##  7     6 1       1995 HBO                 1
##  8     7 1       1995 HBO                 1
##  9     8 1       1995 HBO                 1
## 10     9 1       1995 HBO                 1
##    test_sentence                   response correct    rt fan_pers fan_loc
##    <chr>                           <chr>      <dbl> <dbl>    <dbl>   <dbl>
##  1 De verkoper is in de plantenkas j              1 2842.        2       2
##  2 De goochelaar is in het terras  j              1 1908.        2       2
##  3 De onderzoeker is in de tram    j              1 2796.        2       4
##  4 De kruidenier is in de metro    j              1 1908.        2       4
##  5 De journalist is in de winkel   f              1 2012.        2       4
##  6 De verkoper is in de synagoge   f              1 3487.        2       2
##  7 De schilder is in de afgrond    j              1 2166.        2       2
##  8 De advocaat is in de bus        f              1 1453.        2       4
##  9 De kapitein is in de bus        j              1 1223.        2       4
## 10 De professor is in het filmhuis f              1 2057.        2       4
##    condition charcount   fan type_fan pers_word   loc_word  
##    <chr>         <int> <dbl>    <dbl> <chr>       <chr>     
##  1 target           31    -1       -1 verkoper    plantenkas
##  2 target           30    -1       -1 goochelaar  terras    
##  3 target           28     1       -1 onderzoeker tram      
##  4 target           28     1       -1 kruidenier  metro     
##  5 foil             29     1       -1 journalist  winkel    
##  6 foil             29    -1       -1 verkoper    synagoge  
##  7 target           28    -1       -1 schilder    afgrond   
##  8 foil             24     1       -1 advocaat    bus       
##  9 target           24     1       -1 kapitein    bus       
## 10 foil             31     1       -1 professor   filmhuis  
##    manipulated_fan fan_word   fan_foil fan_target type_condition
##    <chr>           <chr>         <dbl>      <dbl>          <dbl>
##  1 location        plantenkas        0         -1              1
##  2 location        terras            0         -1              1
##  3 location        tram              0          1              1
##  4 location        metro             0          1              1
##  5 location        winkel            1          0             -1
##  6 location        synagoge         -1          0             -1
##  7 location        afgrond           0         -1              1
##  8 location        bus               1          0             -1
##  9 location        bus               0          1              1
## 10 location        filmhuis          1          0             -1
## # ℹ 14,390 more rows
…
testing_all <- testing_all %>% filter(rt > 0) # exclude rts that are 0
testing_all %>% group_by(pp_num) %>% summarize(accuracy = mean(correct)) %>% filter(accuracy <= 0.65)

## # A tibble: 3 × 2
##   pp_num accuracy
##   <chr>     <dbl>
## 1 43        0.606
## 2 65        0.562
## 3 90        0.618

testing_correct <-testing_all %>% filter(!(pp_num %in% c("43","65", "90"))) # excluding 43 and 65 because of low accuracy
testing_correct %>% group_by(pp_num) %>% summarize(accuracy = mean(correct))

## # A tibble: 97 × 2
##    pp_num accuracy
##    <chr>     <dbl>
##  1 1         0.958
##  2 10        0.889
##  3 100       0.931
##  4 11        0.938
##  5 12        0.896
##  6 13        0.917
##  7 14        0.972
##  8 15        0.979
##  9 16        0.826
## 10 17        0.931
## # ℹ 87 more rows
…
dotproduct$fan_word <- dotproduct$Word
dotproduct$pp_num <- dotproduct$List

dotproduct <- dotproduct %>% group_by(pp_num, fan_word) %>% summarise(pmi = mean(Dot_product) + log(5))

## `summarise()` has grouped output by 'pp_num'. You can override using the
## `.groups` argument.

dotproduct$pp_num <- as.character(dotproduct$pp_num)

print(dotproduct)

## # A tibble: 2,400 × 3
## # Groups:   pp_num [100]
##    pp_num fan_word   pmi
##    <chr>  <chr>    <dbl>
##  1 1      afgrond   3.64
##  2 1      bioscoop  2.42
##  3 1      boetiek   2.95
##  4 1      bus       2.63
##  5 1      camper    3.29
##  6 1      caravan   2.84
##  7 1      cinema    3.05
##  8 1      dorp      2.31
##  9 1      filmhuis  3.23
## 10 1      gehucht   3.63
## # ℹ 2,390 more rows
…
actr <- actr %>% group_by(pp_num, fan_word) %>% summarise(actr = mean(ACT_R_activation), Location_fan=first(Location_fan))

## `summarise()` has grouped output by 'pp_num'. You can override using the
## `.groups` argument.

# rescale activations, could also be for location and person separately
actr$actr <- scale(actr$actr)
#actr$actr[which(actr$Location_fan==TRUE)] <- scale(actr$actr[which(actr$Location_fan==TRUE)])
#actr$actr[which(actr$Location_fan==FALSE)] <- scale(actr$actr[which(actr$Location_fan==FALSE)])

actr$pp_num <- as.character(actr$pp_num)

print(actr)

## # A tibble: 2,400 × 4
## # Groups:   pp_num [100]
##    pp_num fan_word actr[,1] Location_fan
##    <chr>  <chr>       <dbl> <lgl>       
##  1 1      afgrond     0.868 TRUE        
##  2 1      bioscoop   -0.949 TRUE        
##  3 1      boetiek     0.201 TRUE        
##  4 1      bus        -0.700 TRUE        
##  5 1      camper      2.15  TRUE        
##  6 1      caravan     0.886 TRUE        
##  7 1      cinema      1.08  TRUE        
##  8 1      dorp       -1.88  TRUE        
##  9 1      filmhuis    1.58  TRUE        
## 10 1      gehucht    -0.392 TRUE        
## # ℹ 2,390 more rows

merged_data <- inner_join(merged_data, actr, by=c("fan_word", "pp_num"))

print(merged_data)

## # A tibble: 13,763 × 25
## # Groups:   test_sentence [2,571]
##     ...1 pp_num   yob education testing_rep test_sentence response correct
##    <dbl> <chr>  <dbl> <chr>           <dbl> <chr>         <chr>      <dbl>
##  1     0 1       1995 HBO                 1 De verkoper … j              1
##  2     1 1       1995 HBO                 1 De goochelaa… j              1
##  3     2 1       1995 HBO                 1 De onderzoek… j              1
##  4     3 1       1995 HBO                 1 De kruidenie… j              1
##  5     4 1       1995 HBO                 1 De journalis… f              1
##  6     5 1       1995 HBO                 1 De verkoper … f              1
##  7     6 1       1995 HBO                 1 De schilder … j              1
##  8     7 1       1995 HBO                 1 De advocaat … f              1
##  9     8 1       1995 HBO                 1 De kapitein … j              1
## 10     9 1       1995 HBO                 1 De professor… f              1
## # ℹ 13,753 more rows
## # ℹ 17 more variables: rt <dbl>, fan_pers <dbl>, fan_loc <dbl>,
## #   condition <chr>, charcount <int>, fan <dbl>, type_fan <dbl>,
## #   pers_word <chr>, loc_word <chr>, manipulated_fan <chr>,
## #   fan_word <chr>, fan_foil <dbl>, fan_target <dbl>,
## #   type_condition <dbl>, pmi <dbl>, actr <dbl[,1]>, Location_fan <lgl>
…
